3.986,3.9398,5.0366,4.385,5.7853,2.9583
3.6006,6.8819,4.254,3.3166,4.742,3.3975
3.5937,6.7568,2.581,4.4492,5.1167,3.8909
4.3489,6.651,4.9682,1.6145,1.2762,3.3864
3.9577,6.7069,2.6789,3.1503,4.9787,4.2178
3.3648,3.3606,4.1203,5.7892,5.7902,3.0827
4.0506,6.8731,3.2379,2.7519,1.8955,3.5471
4.334,6.7365,3.1604,3.2715,2.0633,3.4571
3.7982,3.5498,3.8656,3.9336,3.7377,4.2785
4.1815,3.4188,4.2544,5.3309,5.7172,3.3795
3.8574,6.8113,5.091,2.7468,5.6511,4.2659
4.1405,4.3279,4.0722,4.1069,5.8004,4.162
4.0535,4.1509,4.5693,4.7617,5.7309,3.2181
4.1353,7.3597,6.8029,1.917,6.3269,7.0663
3.576,6.9094,5.801,2.6258,2.3684,4.3554
4.1239,3.8873,5.9976,3.9685,5.5734,3.1787
3.7423,6.5616,3.4957,3.771,4.7514,4.2532
4.0139,7.1132,6.1505,2.0589,5.141,6.7708
3.9114,3.9303,4.2836,5.8308,5.6949,3.3705
3.3648,3.3606,4.1203,5.7892,5.7902,3.0827
4.0535,3.1509,4.5693,4.7617,5.7309,3.2181
