0.35968,0.00014338
0.40395,0.00012934
0.29784,0.00021007
0.39101,0.00013843
0.34468,0.00016197
0.59948,0.00010324
0.34209,0.00016444
0.40137,0.00013099
0.29003,0.00042103
0.51724,0.0001061
0.34724,0.00014924
0.3004,0.00019509
0.40652,0.00011743
0.33173,0.00017284
0.34209,0.00016444
0.35968,0.00014338
0.29784,0.00021007
0.32917,0.00018535
0.42192,0.00011736
0.59948,0.00010324
0.51724,0.0001061
